{
"🎢arhome": "https://xn--ar-4g8e.tk",
      "💢姹莱坞": "https://a.aa01.ml",
	  "passwd": "agree",
    "🧬杜比": "https://dubi.tk",
 "🐉神族九帝":"https://alist.shenzjd.com",
   "✨星梦": "https://pan.bashroot.top",
"💫触光": "https://pan.ichuguang.com",
"👨‍🎓Lan同学": "https://l.lantongxue.repl.co/",
    "🌟云星": "http://alist.itvbox.cc/",
   "🧕🏻小雅": "http://alist.xiaoya.pro",
  "⚪小白":"https://xgs.rainyun.pro/",
  "🌤晴园的宝藏库":"https://alist.52qy.repl.co",
  "🐋一只鱼":"https://alist.youte.ml",
  "🌊七米蓝":"https://al.chirmyram.com", 
  "讯维云盘":"https://pan.xwbeta.com",
  "🐉神族九帝":"https://alist.shenzjd.com",
  "🧬杜比":"https://dubi.tk",
  "💦姬路白雪の小站":"https://pan.jlbx.xyz",
  "🧔老刘备":"https://ali.liucn.repl.co",
  "🌼菊花盘":"https://pan.142856.xyz",
  "🐭米奇妙妙屋":"https://anime.mqmmw.ga",
  "🥼帅盘":"https://hi.shuaipeng.wang",
  "☃姬路白雪":"https://pan.jlbx.xyz",
  "💾DISK":"http://124.222.140.243:8080",
  "🌨云播放":"https://quanzi.laoxianghuijia.cn",
  "💫触光":"https://pan.ichuguang.com",
  "🎡资源小站":"https://960303.xyz/",
   "⭕9T":"https://drive.9t.ee"
}

